^D:\OPENGL\PROJECTS\TERRAINGEN\TERRAINGEN\ENGINE\CAMERA.CPP
/c /ZI /nologo /W3 /WX- /Od /D _DEBUG /D _CONSOLE /D _UNICODE /D UNICODE /Gm /EHsc /RTC1 /MDd /GS /fp:precise /Zc:wchar_t /Zc:forScope /Zc:inline /Fo"X64\DEBUG\\" /Fd"X64\DEBUG\VC140.PDB" /Gd /TP D:\OPENGL\PROJECTS\TERRAINGEN\TERRAINGEN\ENGINE\CAMERA.CPP
^D:\OPENGL\PROJECTS\TERRAINGEN\TERRAINGEN\ENGINE\HEIGHTMAPRENDERER.CPP
/c /ZI /nologo /W3 /WX- /Od /D _DEBUG /D _CONSOLE /D _UNICODE /D UNICODE /Gm /EHsc /RTC1 /MDd /GS /fp:precise /Zc:wchar_t /Zc:forScope /Zc:inline /Fo"X64\DEBUG\\" /Fd"X64\DEBUG\VC140.PDB" /Gd /TP D:\OPENGL\PROJECTS\TERRAINGEN\TERRAINGEN\ENGINE\HEIGHTMAPRENDERER.CPP
^D:\OPENGL\PROJECTS\TERRAINGEN\TERRAINGEN\ENGINE\SHADERPROGRAM.CPP
/c /ZI /nologo /W3 /WX- /Od /D _DEBUG /D _CONSOLE /D _UNICODE /D UNICODE /Gm /EHsc /RTC1 /MDd /GS /fp:precise /Zc:wchar_t /Zc:forScope /Zc:inline /Fo"X64\DEBUG\\" /Fd"X64\DEBUG\VC140.PDB" /Gd /TP D:\OPENGL\PROJECTS\TERRAINGEN\TERRAINGEN\ENGINE\SHADERPROGRAM.CPP
^D:\OPENGL\PROJECTS\TERRAINGEN\TERRAINGEN\ENGINE\TEXTURE2DARRAY.CPP
/c /ZI /nologo /W3 /WX- /Od /D _DEBUG /D _CONSOLE /D _UNICODE /D UNICODE /Gm /EHsc /RTC1 /MDd /GS /fp:precise /Zc:wchar_t /Zc:forScope /Zc:inline /Fo"X64\DEBUG\\" /Fd"X64\DEBUG\VC140.PDB" /Gd /TP D:\OPENGL\PROJECTS\TERRAINGEN\TERRAINGEN\ENGINE\TEXTURE2DARRAY.CPP
^D:\OPENGL\PROJECTS\TERRAINGEN\TERRAINGEN\ENGINE\TEXTURE2D_RGB.CPP
/c /ZI /nologo /W3 /WX- /Od /D _DEBUG /D _CONSOLE /D _UNICODE /D UNICODE /Gm /EHsc /RTC1 /MDd /GS /fp:precise /Zc:wchar_t /Zc:forScope /Zc:inline /Fo"X64\DEBUG\\" /Fd"X64\DEBUG\VC140.PDB" /Gd /TP D:\OPENGL\PROJECTS\TERRAINGEN\TERRAINGEN\ENGINE\TEXTURE2D_RGB.CPP
^D:\OPENGL\PROJECTS\TERRAINGEN\TERRAINGEN\GAME\GAME.CPP
/c /ZI /nologo /W3 /WX- /Od /D _DEBUG /D _CONSOLE /D _UNICODE /D UNICODE /Gm /EHsc /RTC1 /MDd /GS /fp:precise /Zc:wchar_t /Zc:forScope /Zc:inline /Fo"X64\DEBUG\\" /Fd"X64\DEBUG\VC140.PDB" /Gd /TP D:\OPENGL\PROJECTS\TERRAINGEN\TERRAINGEN\GAME\GAME.CPP
^D:\OPENGL\PROJECTS\TERRAINGEN\TERRAINGEN\GAME\HEIGHTMAP.CPP
/c /ZI /nologo /W3 /WX- /Od /D _DEBUG /D _CONSOLE /D _UNICODE /D UNICODE /Gm /EHsc /RTC1 /MDd /GS /fp:precise /Zc:wchar_t /Zc:forScope /Zc:inline /Fo"X64\DEBUG\\" /Fd"X64\DEBUG\VC140.PDB" /Gd /TP D:\OPENGL\PROJECTS\TERRAINGEN\TERRAINGEN\GAME\HEIGHTMAP.CPP
^D:\OPENGL\PROJECTS\TERRAINGEN\TERRAINGEN\NOISE\FASTNOISE.CPP
/c /ZI /nologo /W3 /WX- /Od /D _DEBUG /D _CONSOLE /D _UNICODE /D UNICODE /Gm /EHsc /RTC1 /MDd /GS /fp:precise /Zc:wchar_t /Zc:forScope /Zc:inline /Fo"X64\DEBUG\\" /Fd"X64\DEBUG\VC140.PDB" /Gd /TP D:\OPENGL\PROJECTS\TERRAINGEN\TERRAINGEN\NOISE\FASTNOISE.CPP
^D:\OPENGL\PROJECTS\TERRAINGEN\TERRAINGEN\MAIN.CPP
/c /ZI /nologo /W3 /WX- /Od /D _DEBUG /D _CONSOLE /D _UNICODE /D UNICODE /Gm /EHsc /RTC1 /MDd /GS /fp:precise /Zc:wchar_t /Zc:forScope /Zc:inline /Fo"X64\DEBUG\\" /Fd"X64\DEBUG\VC140.PDB" /Gd /TP D:\OPENGL\PROJECTS\TERRAINGEN\TERRAINGEN\MAIN.CPP
^D:\OPENGL\PROJECTS\TERRAINGEN\TERRAINGEN\ENGINE\CUBEMAPRENDERER.CPP
/c /ZI /nologo /W3 /WX- /Od /D _DEBUG /D _CONSOLE /D _UNICODE /D UNICODE /Gm /EHsc /RTC1 /MDd /GS /fp:precise /Zc:wchar_t /Zc:forScope /Zc:inline /Fo"X64\DEBUG\\" /Fd"X64\DEBUG\VC140.PDB" /Gd /TP D:\OPENGL\PROJECTS\TERRAINGEN\TERRAINGEN\ENGINE\CUBEMAPRENDERER.CPP
^D:\OPENGL\PROJECTS\TERRAINGEN\TERRAINGEN\ENGINE\TEXTURES\CUBEMAPTEXTURE.CPP
/c /ZI /nologo /W3 /WX- /Od /D _DEBUG /D _CONSOLE /D _UNICODE /D UNICODE /Gm /EHsc /RTC1 /MDd /GS /fp:precise /Zc:wchar_t /Zc:forScope /Zc:inline /Fo"X64\DEBUG\\" /Fd"X64\DEBUG\VC140.PDB" /Gd /TP D:\OPENGL\PROJECTS\TERRAINGEN\TERRAINGEN\ENGINE\TEXTURES\CUBEMAPTEXTURE.CPP
^D:\OPENGL\PROJECTS\TERRAINGEN\TERRAINGEN\ENGINE\TEXTURES\TEXTURE2DARRAY.CPP
/c /ZI /nologo /W3 /WX- /Od /D _DEBUG /D _CONSOLE /D _UNICODE /D UNICODE /Gm /EHsc /RTC1 /MDd /GS /fp:precise /Zc:wchar_t /Zc:forScope /Zc:inline /Fo"X64\DEBUG\\" /Fd"X64\DEBUG\VC140.PDB" /Gd /TP D:\OPENGL\PROJECTS\TERRAINGEN\TERRAINGEN\ENGINE\TEXTURES\TEXTURE2DARRAY.CPP
^D:\OPENGL\PROJECTS\TERRAINGEN\TERRAINGEN\ENGINE\TEXTURES\TEXTURE2D_RGB.CPP
/c /ZI /nologo /W3 /WX- /Od /D _DEBUG /D _CONSOLE /D _UNICODE /D UNICODE /Gm /EHsc /RTC1 /MDd /GS /fp:precise /Zc:wchar_t /Zc:forScope /Zc:inline /Fo"X64\DEBUG\\" /Fd"X64\DEBUG\VC140.PDB" /Gd /TP D:\OPENGL\PROJECTS\TERRAINGEN\TERRAINGEN\ENGINE\TEXTURES\TEXTURE2D_RGB.CPP
^D:\OPENGL\PROJECTS\TERRAINGEN\TERRAINGEN\ENGINE\RENDERERS\ABSTRACTRENDERER.CPP
/c /ZI /nologo /W3 /WX- /Od /D _DEBUG /D _CONSOLE /D _UNICODE /D UNICODE /Gm /EHsc /RTC1 /MDd /GS /fp:precise /Zc:wchar_t /Zc:forScope /Zc:inline /Fo"X64\DEBUG\\" /Fd"X64\DEBUG\VC140.PDB" /Gd /TP D:\OPENGL\PROJECTS\TERRAINGEN\TERRAINGEN\ENGINE\RENDERERS\ABSTRACTRENDERER.CPP
^D:\OPENGL\PROJECTS\TERRAINGEN\TERRAINGEN\ENGINE\RENDERERS\CUBEMAPRENDERER.CPP
/c /ZI /nologo /W3 /WX- /Od /D _DEBUG /D _CONSOLE /D _UNICODE /D UNICODE /Gm /EHsc /RTC1 /MDd /GS /fp:precise /Zc:wchar_t /Zc:forScope /Zc:inline /Fo"X64\DEBUG\\" /Fd"X64\DEBUG\VC140.PDB" /Gd /TP D:\OPENGL\PROJECTS\TERRAINGEN\TERRAINGEN\ENGINE\RENDERERS\CUBEMAPRENDERER.CPP
^D:\OPENGL\PROJECTS\TERRAINGEN\TERRAINGEN\ENGINE\RENDERERS\MASTERRENDERER.CPP
/c /ZI /nologo /W3 /WX- /Od /D _DEBUG /D _CONSOLE /D _UNICODE /D UNICODE /Gm /EHsc /RTC1 /MDd /GS /fp:precise /Zc:wchar_t /Zc:forScope /Zc:inline /Fo"X64\DEBUG\\" /Fd"X64\DEBUG\VC140.PDB" /Gd /TP D:\OPENGL\PROJECTS\TERRAINGEN\TERRAINGEN\ENGINE\RENDERERS\MASTERRENDERER.CPP
^D:\OPENGL\PROJECTS\TERRAINGEN\TERRAINGEN\ENGINE\RENDERERS\HEIGHTMAPRENDERER.CPP
/c /ZI /nologo /W3 /WX- /Od /D _DEBUG /D _CONSOLE /D _UNICODE /D UNICODE /Gm /EHsc /RTC1 /MDd /GS /fp:precise /Zc:wchar_t /Zc:forScope /Zc:inline /Fo"X64\DEBUG\\" /Fd"X64\DEBUG\VC140.PDB" /Gd /TP D:\OPENGL\PROJECTS\TERRAINGEN\TERRAINGEN\ENGINE\RENDERERS\HEIGHTMAPRENDERER.CPP
^D:\OPENGL\PROJECTS\TERRAINGEN\TERRAINGEN\ENGINE\RENDERERS\ASTEROIDRENDERER.CPP
/c /ZI /nologo /W3 /WX- /Od /D _DEBUG /D _CONSOLE /D _UNICODE /D UNICODE /Gm /EHsc /RTC1 /MDd /GS /fp:precise /Zc:wchar_t /Zc:forScope /Zc:inline /Fo"X64\DEBUG\\" /Fd"X64\DEBUG\VC140.PDB" /Gd /TP D:\OPENGL\PROJECTS\TERRAINGEN\TERRAINGEN\ENGINE\RENDERERS\ASTEROIDRENDERER.CPP
^D:\OPENGL\PROJECTS\TERRAINGEN\TERRAINGEN\GAME\ASTEROID.CPP
/c /ZI /nologo /W3 /WX- /Od /D _DEBUG /D _CONSOLE /D _UNICODE /D UNICODE /Gm /EHsc /RTC1 /MDd /GS /fp:precise /Zc:wchar_t /Zc:forScope /Zc:inline /Fo"X64\DEBUG\\" /Fd"X64\DEBUG\VC140.PDB" /Gd /TP D:\OPENGL\PROJECTS\TERRAINGEN\TERRAINGEN\GAME\ASTEROID.CPP
^D:\OPENGL\PROJECTS\TERRAINGEN\TERRAINGEN\SRC\ENGINE\CAMERA.CPP
/c /ZI /nologo /W3 /WX- /Od /D _DEBUG /D _CONSOLE /D _UNICODE /D UNICODE /Gm /EHsc /RTC1 /MDd /GS /fp:precise /Zc:wchar_t /Zc:forScope /Zc:inline /Fo"X64\DEBUG\\" /Fd"X64\DEBUG\VC140.PDB" /Gd /TP D:\OPENGL\PROJECTS\TERRAINGEN\TERRAINGEN\SRC\ENGINE\CAMERA.CPP
^D:\OPENGL\PROJECTS\TERRAINGEN\TERRAINGEN\SRC\ENGINE\RENDERERS\ABSTRACTRENDERER.CPP
/c /ZI /nologo /W3 /WX- /Od /D _DEBUG /D _CONSOLE /D _UNICODE /D UNICODE /Gm /EHsc /RTC1 /MDd /GS /fp:precise /Zc:wchar_t /Zc:forScope /Zc:inline /Fo"X64\DEBUG\\" /Fd"X64\DEBUG\VC140.PDB" /Gd /TP D:\OPENGL\PROJECTS\TERRAINGEN\TERRAINGEN\SRC\ENGINE\RENDERERS\ABSTRACTRENDERER.CPP
^D:\OPENGL\PROJECTS\TERRAINGEN\TERRAINGEN\SRC\ENGINE\RENDERERS\ASTEROIDRENDERER.CPP
/c /ZI /nologo /W3 /WX- /Od /D _DEBUG /D _CONSOLE /D _UNICODE /D UNICODE /Gm /EHsc /RTC1 /MDd /GS /fp:precise /Zc:wchar_t /Zc:forScope /Zc:inline /Fo"X64\DEBUG\\" /Fd"X64\DEBUG\VC140.PDB" /Gd /TP D:\OPENGL\PROJECTS\TERRAINGEN\TERRAINGEN\SRC\ENGINE\RENDERERS\ASTEROIDRENDERER.CPP
^D:\OPENGL\PROJECTS\TERRAINGEN\TERRAINGEN\SRC\ENGINE\RENDERERS\CUBEMAPRENDERER.CPP
/c /ZI /nologo /W3 /WX- /Od /D _DEBUG /D _CONSOLE /D _UNICODE /D UNICODE /Gm /EHsc /RTC1 /MDd /GS /fp:precise /Zc:wchar_t /Zc:forScope /Zc:inline /Fo"X64\DEBUG\\" /Fd"X64\DEBUG\VC140.PDB" /Gd /TP D:\OPENGL\PROJECTS\TERRAINGEN\TERRAINGEN\SRC\ENGINE\RENDERERS\CUBEMAPRENDERER.CPP
^D:\OPENGL\PROJECTS\TERRAINGEN\TERRAINGEN\SRC\ENGINE\RENDERERS\MASTERRENDERER.CPP
/c /ZI /nologo /W3 /WX- /Od /D _DEBUG /D _CONSOLE /D _UNICODE /D UNICODE /Gm /EHsc /RTC1 /MDd /GS /fp:precise /Zc:wchar_t /Zc:forScope /Zc:inline /Fo"X64\DEBUG\\" /Fd"X64\DEBUG\VC140.PDB" /Gd /TP D:\OPENGL\PROJECTS\TERRAINGEN\TERRAINGEN\SRC\ENGINE\RENDERERS\MASTERRENDERER.CPP
^D:\OPENGL\PROJECTS\TERRAINGEN\TERRAINGEN\SRC\ENGINE\TEXTURES\ABSTRACTTEXTURE.CPP
/c /ZI /nologo /W3 /WX- /Od /D _DEBUG /D _CONSOLE /D _UNICODE /D UNICODE /Gm /EHsc /RTC1 /MDd /GS /fp:precise /Zc:wchar_t /Zc:forScope /Zc:inline /Fo"X64\DEBUG\\" /Fd"X64\DEBUG\VC140.PDB" /Gd /TP D:\OPENGL\PROJECTS\TERRAINGEN\TERRAINGEN\SRC\ENGINE\TEXTURES\ABSTRACTTEXTURE.CPP
^D:\OPENGL\PROJECTS\TERRAINGEN\TERRAINGEN\SRC\ENGINE\TEXTURES\CUBEMAPTEXTURE.CPP
/c /ZI /nologo /W3 /WX- /Od /D _DEBUG /D _CONSOLE /D _UNICODE /D UNICODE /Gm /EHsc /RTC1 /MDd /GS /fp:precise /Zc:wchar_t /Zc:forScope /Zc:inline /Fo"X64\DEBUG\\" /Fd"X64\DEBUG\VC140.PDB" /Gd /TP D:\OPENGL\PROJECTS\TERRAINGEN\TERRAINGEN\SRC\ENGINE\TEXTURES\CUBEMAPTEXTURE.CPP
^D:\OPENGL\PROJECTS\TERRAINGEN\TERRAINGEN\SRC\ENGINE\RENDERERS\HEIGHTMAPRENDERER.CPP
/c /ZI /nologo /W3 /WX- /Od /D _DEBUG /D _CONSOLE /D _UNICODE /D UNICODE /Gm /EHsc /RTC1 /MDd /GS /fp:precise /Zc:wchar_t /Zc:forScope /Zc:inline /Fo"X64\DEBUG\\" /Fd"X64\DEBUG\VC140.PDB" /Gd /TP D:\OPENGL\PROJECTS\TERRAINGEN\TERRAINGEN\SRC\ENGINE\RENDERERS\HEIGHTMAPRENDERER.CPP
^D:\OPENGL\PROJECTS\TERRAINGEN\TERRAINGEN\SRC\ENGINE\SHADERPROGRAM.CPP
/c /ZI /nologo /W3 /WX- /Od /D _DEBUG /D _CONSOLE /D _UNICODE /D UNICODE /Gm /EHsc /RTC1 /MDd /GS /fp:precise /Zc:wchar_t /Zc:forScope /Zc:inline /Fo"X64\DEBUG\\" /Fd"X64\DEBUG\VC140.PDB" /Gd /TP D:\OPENGL\PROJECTS\TERRAINGEN\TERRAINGEN\SRC\ENGINE\SHADERPROGRAM.CPP
^D:\OPENGL\PROJECTS\TERRAINGEN\TERRAINGEN\SRC\ENGINE\TEXTURES\TEXTURE2DARRAY.CPP
/c /ZI /nologo /W3 /WX- /Od /D _DEBUG /D _CONSOLE /D _UNICODE /D UNICODE /Gm /EHsc /RTC1 /MDd /GS /fp:precise /Zc:wchar_t /Zc:forScope /Zc:inline /Fo"X64\DEBUG\\" /Fd"X64\DEBUG\VC140.PDB" /Gd /TP D:\OPENGL\PROJECTS\TERRAINGEN\TERRAINGEN\SRC\ENGINE\TEXTURES\TEXTURE2DARRAY.CPP
^D:\OPENGL\PROJECTS\TERRAINGEN\TERRAINGEN\SRC\ENGINE\TEXTURES\TEXTURE2D_RGB.CPP
/c /ZI /nologo /W3 /WX- /Od /D _DEBUG /D _CONSOLE /D _UNICODE /D UNICODE /Gm /EHsc /RTC1 /MDd /GS /fp:precise /Zc:wchar_t /Zc:forScope /Zc:inline /Fo"X64\DEBUG\\" /Fd"X64\DEBUG\VC140.PDB" /Gd /TP D:\OPENGL\PROJECTS\TERRAINGEN\TERRAINGEN\SRC\ENGINE\TEXTURES\TEXTURE2D_RGB.CPP
^D:\OPENGL\PROJECTS\TERRAINGEN\TERRAINGEN\SRC\GAME\OBJECTS\ASTEROID.CPP
/c /ZI /nologo /W3 /WX- /Od /D _DEBUG /D _CONSOLE /D _UNICODE /D UNICODE /Gm /EHsc /RTC1 /MDd /GS /fp:precise /Zc:wchar_t /Zc:forScope /Zc:inline /Fo"X64\DEBUG\\" /Fd"X64\DEBUG\VC140.PDB" /Gd /TP D:\OPENGL\PROJECTS\TERRAINGEN\TERRAINGEN\SRC\GAME\OBJECTS\ASTEROID.CPP
^D:\OPENGL\PROJECTS\TERRAINGEN\TERRAINGEN\SRC\GAME\GAME.CPP
/c /ZI /nologo /W3 /WX- /Od /D _DEBUG /D _CONSOLE /D _UNICODE /D UNICODE /Gm /EHsc /RTC1 /MDd /GS /fp:precise /Zc:wchar_t /Zc:forScope /Zc:inline /Fo"X64\DEBUG\\" /Fd"X64\DEBUG\VC140.PDB" /Gd /TP D:\OPENGL\PROJECTS\TERRAINGEN\TERRAINGEN\SRC\GAME\GAME.CPP
^D:\OPENGL\PROJECTS\TERRAINGEN\TERRAINGEN\SRC\GAME\OBJECTS\HEIGHTMAP.CPP
/c /ZI /nologo /W3 /WX- /Od /D _DEBUG /D _CONSOLE /D _UNICODE /D UNICODE /Gm /EHsc /RTC1 /MDd /GS /fp:precise /Zc:wchar_t /Zc:forScope /Zc:inline /Fo"X64\DEBUG\\" /Fd"X64\DEBUG\VC140.PDB" /Gd /TP D:\OPENGL\PROJECTS\TERRAINGEN\TERRAINGEN\SRC\GAME\OBJECTS\HEIGHTMAP.CPP
^D:\OPENGL\PROJECTS\TERRAINGEN\TERRAINGEN\SRC\GAME\OBJECTS\LIGHT.CPP
/c /ZI /nologo /W3 /WX- /Od /D _DEBUG /D _CONSOLE /D _UNICODE /D UNICODE /Gm /EHsc /RTC1 /MDd /GS /fp:precise /Zc:wchar_t /Zc:forScope /Zc:inline /Fo"X64\DEBUG\\" /Fd"X64\DEBUG\VC140.PDB" /Gd /TP D:\OPENGL\PROJECTS\TERRAINGEN\TERRAINGEN\SRC\GAME\OBJECTS\LIGHT.CPP
^D:\OPENGL\PROJECTS\TERRAINGEN\TERRAINGEN\SRC\NOISE\FASTNOISE.CPP
/c /ZI /nologo /W3 /WX- /Od /D _DEBUG /D _CONSOLE /D _UNICODE /D UNICODE /Gm /EHsc /RTC1 /MDd /GS /fp:precise /Zc:wchar_t /Zc:forScope /Zc:inline /Fo"X64\DEBUG\\" /Fd"X64\DEBUG\VC140.PDB" /Gd /TP D:\OPENGL\PROJECTS\TERRAINGEN\TERRAINGEN\SRC\NOISE\FASTNOISE.CPP
^D:\OPENGL\PROJECTS\TERRAINGEN\TERRAINGEN\SRC\MAIN.CPP
/c /ZI /nologo /W3 /WX- /Od /D _DEBUG /D _CONSOLE /D _UNICODE /D UNICODE /Gm /EHsc /RTC1 /MDd /GS /fp:precise /Zc:wchar_t /Zc:forScope /Zc:inline /Fo"X64\DEBUG\\" /Fd"X64\DEBUG\VC140.PDB" /Gd /TP D:\OPENGL\PROJECTS\TERRAINGEN\TERRAINGEN\SRC\MAIN.CPP
